Regression:   Type: Trade
Regression:   wMsgType | int | * | 13
Regression:   wEntitleCode | int | * | 77
Regression:   wDisplayHint | int | * | 73
Regression:   wQuoteSeqNum | int | * | 13878701
Regression:   wTradeDate | date | * | 2010/07/05
Regression:   wTradeCount | int | * | 3
Regression:   wTradeTick | enum | * | +
Regression:   wTradePrice | price | * | 123.00
Regression:   wTradeTime | time | * | 13:54:20.469
Regression:   wTradeUnits | string | * | 2DP
Regression:   wTradeVolume | quantity | * | 1
Regression:   wTradePartId | string | * | W
Regression:   wTradeQualifier | string | * | Normal
Regression:   wTradeSeqNum | int | * | 14071132
Regression:   wMsgType | int | * | 13
Regression:   wEntitleCode | int | * | 77
Regression:   wDisplayHint | int |   | 73
Regression:   wQuoteSeqNum | int | * | 13878702
Regression:   wTradeDate | date |   | 2010/07/05
Regression:   wTradeCount | int |   | 3
Regression:   wTradeTick | enum |   | +
Regression:   wTradePrice | price |   | 123.00
Regression:   wTradeTime | time |   | 13:54:20.469
Regression:   wTradeUnits | string |   | 2DP
Regression:   wTradeVolume | quantity |   | 1
Regression:   wTradePartId | string |   | W
Regression:   wTradeQualifier | string |   | Normal
Regression:   wTradeSeqNum | int |   | 14071132
Regression:   wMsgType | int | * | 13
Regression:   wEntitleCode | int | * | 77
Regression:   wDisplayHint | int | * | 73
