Record Publish: GRAR .W     Type:  Quote
   wTradePrice | price |   | 7.80
   wTradeVolume | quantity |   | 10
Record Publish: HASP .W     Type:  Tradea Tradeb
   wTradePrice | price |   | 1.10
   wTradeVolume | quantity |   | 2
Record Publish: GOPD .A     Type:  Tradea Tradeb
   wTradePrice | price |   | 1.10
   wTradeVolume | quantity |   | 2
Record Publish: GEP .W     Type:  Tradea Tradeb
   wTradePrice | price | * | 0.25
   wTradeVolume | quantity | * | 16
Record Publish: GOPE .A     Type:  Tradea Tradeb
   wTradePrice | price |   | 19.90
   wTradeVolume | quantity |   | 1
Record Publish: GEWP .N     Type:  Tradea Tradeb
   wTradePrice | price |   | 0.16
   wTradeVolume | quantity |   | 1
Record Publish: GEWQ .N     Type:  Tradea Tradeb
   wTradePrice | price |   | 0.25
   wTradeVolume | quantity |   | 50
Record Publish: GURR .W     Type:  Tradea Tradeb
   wTradePrice | price |   | 0.25
   wTradeVolume | quantity |   | 50
Record Publish: GEWQ .N     Type:  Tradea Tradeb
   wTradePrice | price |   | 0.25
   wTradeVolume | quantity |   | 50
Record Publish: GEWQ .N     Type:  Tradea Tradeb
   wTradePrice | price | * | 0.25
   wTradeVolume | quantity | * | 10
Record Publish: GEWQ .N     Type:  Tradea Tradeb
   wTradePrice | price | * | 0.25
   wTradeVolume | quantity | * | 20
Record Publish: GEWQ .N     Type:  Tradea Tradeb
   wTradePrice | price | * | 0.25
   wTradeVolume | quantity | * | 4
Record Publish: GEWU .X     Type:  Tradea Tradeb
   wTradePrice | price |   | 0.17
   wTradeVolume | quantity |   | 121
Record Publish: GEE .N     Type:  Tradea Tradeb
   wTradePrice | price |   | 0.96
   wTradeVolume | quantity |   | 10
Record Publish: HHUV .N     Type:  Tradea Tradeb
   wTradePrice | price |   | 0.14
   wTradeVolume | quantity |   | 35
Record Publish: GPYG .W     Type:  Tradea Tradeb
   wTradePrice | price |   | 0.11
   wTradeVolume | quantity |   | 11
Record Publish: GEP .Q     Type:  Tradea Tradeb
   wTradePrice | price |   | 0.10
   wTradeVolume | quantity |   | 2
Record Publish: GOQR .X     Type:  Tradea Tradeb
   wTradePrice | price |   | 9.70
   wTradeVolume | quantity |   | 2
Record Publish: GOPQ .Y     Type:  Tradea Tradeb
   wTradePrice | price | * | 4.32
   wTradeVolume | quantity | * | 1
Record Publish: HASG .Y     Type:  Tradea Tradeb
   wTradePrice | price | * | 6.42
   wTradeVolume | quantity | * | 1
Record Publish: GOPQ .Y     Type:  Tradea Tradeb
   wTradePrice | price | * | 2.75
   wTradeVolume | quantity | * | 1
Record Publish: GPYE .X     Type:  Tradea Tradeb
   wTradePrice | price |   | 2.68
   wTradeVolume | quantity |   | 1
Record Publish: GOPR .W     Type:  Tradea Tradeb
   wTradePrice | price |   | 9.50
   wTradeVolume | quantity |   | 1
Record Publish: GNWQ .X     Type:  Tradea Tradeb
   wTradePrice | price |   | 0.24
   wTradeVolume | quantity |   | 4
Record Publish: GPYE .Q     Type:  Tradea Tradeb
   wTradePrice | price |   | 5.40
   wTradeVolume | quantity |   | 10
Record Publish: GOQU .B     Type:  Tradea Tradeb
   wTradePrice | price |   | 0.10
   wTradeVolume | quantity |   | 10
Record Publish: GOPU .W     Type:  Tradea Tradeb
   wTradePrice | price |   | 123.00
   wTradeVolume | quantity |   | 1
Record Publish: GGDI .X     Type:  Tradea Tradeb
   wTradePrice | price |   | 0.25
   wTradeVolume | quantity |   | 16
Record Publish: HAOF .W     Type:  Quote
   wTradePrice | price |   | 0.25
   wTradeVolume | quantity |   | 100
Record Publish: GOPQ .Y     Type:  Tradea Tradeb
   wTradePrice | price |   | 2.75
   wTradeVolume | quantity |   | 1
Record Publish: GEWQ .X     Type:  Tradea Tradeb
   wTradePrice | price |   | 0.25
   wTradeVolume | quantity |   | 16
Record Publish: GXQR .W     Type:  Tradea Tradeb
   wTradePrice | price |   | 0.96
   wTradeVolume | quantity |   | 10
Record Publish: HCNF .W     Type:  Quote
   wTradePrice | price |   | 24.00
   wTradeVolume | quantity |   | 1
Record Publish: HAOF .W     Type:  Tradea Tradeb
   wTradePrice | price |   | 9.50
   wTradeVolume | quantity |   | 1
Record Publish: GMED .Q     Type:  Tradea Tradeb
   wTradePrice | price |   | 26.45
   wTradeVolume | quantity |   | 4
Record Publish: GCZC .X     Type:  Tradea Tradeb
   wTradePrice | price |   | 1.40
   wTradeVolume | quantity |   | 30
Record Publish: HCUT .W     Type:  Tradea Tradeb
   wTradePrice | price |   | 0.40
   wTradeVolume | quantity |   | 15
Record Publish: GIQL .X     Type:  Tradea Tradeb
   wTradePrice | price |   | 24.00
   wTradeVolume | quantity |   | 1
